{
  "project_info": {
    "project_number": "960932419012",
    "project_id": "loginapp-dd12f",
    "storage_bucket": "loginapp-dd12f.appspot.com"
  },
  "client": [
    {
      "client_info": {
        "mobilesdk_app_id": "1:960932419012:android:7c4fa42ea010e8fe3b8091",
        "android_client_info": {
          "package_name": "com.example.loginfirebase"
        }
      },
      "oauth_client": [
        {
          "client_id": "960932419012-5d9tlvieqob8kka2rutqsae1uquq0elr.apps.googleusercontent.com",
          "client_type": 3
        }
      ],
      "api_key": [
        {
          "current_key": "AIzaSyD1QwtVkppc0Q4zPhU2hwlcbXT7xFGgTK4"
        }
      ],
      "services": {
        "appinvite_service": {
          "other_platform_oauth_client": [
            {
              "client_id": "960932419012-5d9tlvieqob8kka2rutqsae1uquq0elr.apps.googleusercontent.com",
              "client_type": 3
            }
          ]
        }
      }
    }
  ],
  "configuration_version": "1"
}